C:\Dev\Workspace\frameworktestng\src\test\java\br\com\frameworktestng\ibpj\run\RunnerTestNG.java
C:\Dev\Workspace\frameworktestng\src\test\java\br\com\frameworktestng\ibpj\TestRunner\TestRunnerTransferencia.java
C:\Dev\Workspace\frameworktestng\src\test\java\br\com\frameworktestng\ibpj\excel\LerExcelMassa.java
C:\Dev\Workspace\frameworktestng\src\test\java\br\com\frameworktestng\ibpj\feature\LoginFeature.java
C:\Dev\Workspace\frameworktestng\src\test\java\br\com\frameworktestng\ibpj\steps\login.java
C:\Dev\Workspace\frameworktestng\src\test\java\br\com\frameworktestng\ibpj\page\PaginaTransferencia.java
C:\Dev\Workspace\frameworktestng\src\test\java\br\com\frameworktestng\ibpj\page\InicialPagina.java
C:\Dev\Workspace\frameworktestng\src\test\java\br\com\frameworktestng\ibpj\steps\transferenciaEntreContasSantanderSteps.java
C:\Dev\Workspace\frameworktestng\src\test\java\br\com\frameworktestng\ibpj\page\LoginPagina.java
C:\Dev\Workspace\frameworktestng\src\test\java\br\com\frameworktestng\ibpj\page\PaginaBase.java
C:\Dev\Workspace\frameworktestng\src\test\java\br\com\frameworktestng\ibpj\execution\TransferenciaAgendamentoEntreContasSantander.java
C:\Dev\Workspace\frameworktestng\src\test\java\br\com\frameworktestng\ibpj\execution\Login.java
C:\Dev\Workspace\frameworktestng\src\test\java\br\com\frameworktestng\ibpj\feature\TransferenciaAgendamentoEntreContasSantanderFeature.java
C:\Dev\Workspace\frameworktestng\src\test\java\br\com\frameworktestng\ibpj\steps\transferenciaAgendamentoEntreContasSantanderSteps.java
C:\Dev\Workspace\frameworktestng\src\test\java\br\com\frameworktestng\ibpj\page\PaginaParametros.java
C:\Dev\Workspace\frameworktestng\src\test\java\br\com\frameworktestng\ibpj\massa\MassaExecucao.java
C:\Dev\Workspace\frameworktestng\src\test\java\br\com\frameworktestng\ibpj\execution\TransferenciaEntreContasSantander.java
C:\Dev\Workspace\frameworktestng\src\test\java\br\com\frameworktestng\ibpj\excel\Guias.java
C:\Dev\Workspace\frameworktestng\src\test\java\br\com\frameworktestng\ibpj\feature\TransferenciaEntreContasSantanderFeature.java
C:\Dev\Workspace\frameworktestng\src\test\java\br\com\frameworktestng\ibpj\TestRunner\TestRunnerLogin.java
